<?xml version="1.0" encoding="UTF-8" standalone="no"?>
<!-- Created with Inkscape (http://www.inkscape.org/) -->

<svg
   xmlns:dc="http://purl.org/dc/elements/1.1/"
   xmlns:cc="http://creativecommons.org/ns#"
   xmlns:rdf="http://www.w3.org/1999/02/22-rdf-syntax-ns#"
   xmlns:svg="http://www.w3.org/2000/svg"
   xmlns="http://www.w3.org/2000/svg"
   xmlns:sodipodi="http://sodipodi.sourceforge.net/DTD/sodipodi-0.dtd"
   xmlns:inkscape="http://www.inkscape.org/namespaces/inkscape"
   version="1.1"
   id="svg2"
   xml:space="preserve"
   width="793.33331"
   height="1122.6667"
   viewBox="0 0 793.33331 1122.6667"
   sodipodi:docname="fonction_axes.svg"
   inkscape:version="0.92.5 (2060ec1f9f, 2020-04-08)"><metadata
     id="metadata8"><rdf:RDF><cc:Work
         rdf:about=""><dc:format>image/svg+xml</dc:format><dc:type
           rdf:resource="http://purl.org/dc/dcmitype/StillImage" /><dc:title></dc:title></cc:Work></rdf:RDF></metadata><defs
     id="defs6"><clipPath
       clipPathUnits="userSpaceOnUse"
       id="clipPath20"><path
         d="M 52,952 V 6968 H 5950 V 952 Z"
         id="path18"
         inkscape:connector-curvature="0" /></clipPath></defs><sodipodi:namedview
     pagecolor="#ffffff"
     bordercolor="#666666"
     borderopacity="1"
     objecttolerance="10"
     gridtolerance="10"
     guidetolerance="10"
     inkscape:pageopacity="0"
     inkscape:pageshadow="2"
     inkscape:window-width="882"
     inkscape:window-height="480"
     id="namedview4"
     showgrid="false"
     inkscape:zoom="0.21021376"
     inkscape:cx="396.66666"
     inkscape:cy="561.33337"
     inkscape:window-x="72"
     inkscape:window-y="27"
     inkscape:window-maximized="0"
     inkscape:current-layer="g10" /><g
     id="g10"
     inkscape:groupmode="layer"
     inkscape:label="ink_ext_XXXXXX"
     transform="matrix(1.3333333,0,0,-1.3333333,0,1122.6667)"><g
       id="g12"
       transform="scale(0.1)"><g
         id="g14"><g
           id="g16"
           clip-path="url(#clipPath20)"><path
             d="m 52.5,1189.72 h 5955"
             style="fill:none;stroke:#0000ff;stroke-width:22.5;stroke-linecap:butt;stroke-linejoin:round;stroke-miterlimit:10;stroke-dasharray:none;stroke-opacity:1"
             id="path22"
             inkscape:connector-curvature="0" /><path
             d="M 52.5,1247.5 V 1131.95"
             style="fill:none;stroke:#0000ff;stroke-width:22.5;stroke-linecap:butt;stroke-linejoin:round;stroke-miterlimit:10;stroke-dasharray:none;stroke-opacity:1"
             id="path24"
             inkscape:connector-curvature="0" /><g
             id="g26"
             transform="scale(10)"><text
               transform="matrix(1,0,0,-1,0.75,99.5047)"
               style="font-variant:normal;font-weight:normal;font-size:7.5px;font-family:DejavuSans;-inkscape-font-specification:DejavuSans;writing-mode:lr-tb;fill:#0000ff;fill-opacity:1;fill-rule:nonzero;stroke:none"
               id="text30"><tspan
                 x="0 4.5"
                 y="0"
                 sodipodi:role="line"
                 id="tspan28">-5</tspan></text>
</g><path
             d="M 652.5,1247.5 V 1131.95"
             style="fill:none;stroke:#0000ff;stroke-width:22.5;stroke-linecap:butt;stroke-linejoin:round;stroke-miterlimit:10;stroke-dasharray:none;stroke-opacity:1"
             id="path32"
             inkscape:connector-curvature="0" /><g
             id="g34"
             transform="scale(10)"><text
               transform="matrix(1,0,0,-1,60.75,99.5047)"
               style="font-variant:normal;font-weight:normal;font-size:7.5px;font-family:DejavuSans;-inkscape-font-specification:DejavuSans;writing-mode:lr-tb;fill:#0000ff;fill-opacity:1;fill-rule:nonzero;stroke:none"
               id="text38"><tspan
                 x="0 4.5"
                 y="0"
                 sodipodi:role="line"
                 id="tspan36">-4</tspan></text>
</g><path
             d="M 1252.5,1247.5 V 1131.95"
             style="fill:none;stroke:#0000ff;stroke-width:22.5;stroke-linecap:butt;stroke-linejoin:round;stroke-miterlimit:10;stroke-dasharray:none;stroke-opacity:1"
             id="path40"
             inkscape:connector-curvature="0" /><g
             id="g42"
             transform="scale(10)"><text
               transform="matrix(1,0,0,-1,120.75,99.5047)"
               style="font-variant:normal;font-weight:normal;font-size:7.5px;font-family:DejavuSans;-inkscape-font-specification:DejavuSans;writing-mode:lr-tb;fill:#0000ff;fill-opacity:1;fill-rule:nonzero;stroke:none"
               id="text46"><tspan
                 x="0 4.5"
                 y="0"
                 sodipodi:role="line"
                 id="tspan44">-3</tspan></text>
</g><path
             d="M 1852.5,1247.5 V 1131.95"
             style="fill:none;stroke:#0000ff;stroke-width:22.5;stroke-linecap:butt;stroke-linejoin:round;stroke-miterlimit:10;stroke-dasharray:none;stroke-opacity:1"
             id="path48"
             inkscape:connector-curvature="0" /><g
             id="g50"
             transform="scale(10)"><text
               transform="matrix(1,0,0,-1,180.75,99.5047)"
               style="font-variant:normal;font-weight:normal;font-size:7.5px;font-family:DejavuSans;-inkscape-font-specification:DejavuSans;writing-mode:lr-tb;fill:#0000ff;fill-opacity:1;fill-rule:nonzero;stroke:none"
               id="text54"><tspan
                 x="0 4.5"
                 y="0"
                 sodipodi:role="line"
                 id="tspan52">-2</tspan></text>
</g><path
             d="M 2452.5,1247.5 V 1131.95"
             style="fill:none;stroke:#0000ff;stroke-width:22.5;stroke-linecap:butt;stroke-linejoin:round;stroke-miterlimit:10;stroke-dasharray:none;stroke-opacity:1"
             id="path56"
             inkscape:connector-curvature="0" /><g
             id="g58"
             transform="scale(10)"><text
               transform="matrix(1,0,0,-1,240.75,99.5047)"
               style="font-variant:normal;font-weight:normal;font-size:7.5px;font-family:DejavuSans;-inkscape-font-specification:DejavuSans;writing-mode:lr-tb;fill:#0000ff;fill-opacity:1;fill-rule:nonzero;stroke:none"
               id="text62"><tspan
                 x="0 4.5"
                 y="0"
                 sodipodi:role="line"
                 id="tspan60">-1</tspan></text>
</g><path
             d="M 3052.5,1247.5 V 1131.95"
             style="fill:none;stroke:#0000ff;stroke-width:22.5;stroke-linecap:butt;stroke-linejoin:round;stroke-miterlimit:10;stroke-dasharray:none;stroke-opacity:1"
             id="path64"
             inkscape:connector-curvature="0" /><g
             id="g66"
             transform="scale(10)"><text
               transform="matrix(1,0,0,-1,303,99.5047)"
               style="font-variant:normal;font-weight:normal;font-size:7.5px;font-family:DejavuSans;-inkscape-font-specification:DejavuSans;writing-mode:lr-tb;fill:#0000ff;fill-opacity:1;fill-rule:nonzero;stroke:none"
               id="text70"><tspan
                 x="0"
                 y="0"
                 id="tspan68">0</tspan></text>
</g><path
             d="M 3652.5,1247.5 V 1131.95"
             style="fill:none;stroke:#0000ff;stroke-width:22.5;stroke-linecap:butt;stroke-linejoin:round;stroke-miterlimit:10;stroke-dasharray:none;stroke-opacity:1"
             id="path72"
             inkscape:connector-curvature="0" /><g
             id="g74"
             transform="scale(10)"><text
               transform="matrix(1,0,0,-1,363,99.5047)"
               style="font-variant:normal;font-weight:normal;font-size:7.5px;font-family:DejavuSans;-inkscape-font-specification:DejavuSans;writing-mode:lr-tb;fill:#0000ff;fill-opacity:1;fill-rule:nonzero;stroke:none"
               id="text78"><tspan
                 x="0"
                 y="0"
                 id="tspan76">1</tspan></text>
</g><path
             d="M 4252.5,1247.5 V 1131.95"
             style="fill:none;stroke:#0000ff;stroke-width:22.5;stroke-linecap:butt;stroke-linejoin:round;stroke-miterlimit:10;stroke-dasharray:none;stroke-opacity:1"
             id="path80"
             inkscape:connector-curvature="0" /><g
             id="g82"
             transform="scale(10)"><text
               transform="matrix(1,0,0,-1,423,99.5047)"
               style="font-variant:normal;font-weight:normal;font-size:7.5px;font-family:DejavuSans;-inkscape-font-specification:DejavuSans;writing-mode:lr-tb;fill:#0000ff;fill-opacity:1;fill-rule:nonzero;stroke:none"
               id="text86"><tspan
                 x="0"
                 y="0"
                 id="tspan84">2</tspan></text>
</g><path
             d="M 4852.5,1247.5 V 1131.95"
             style="fill:none;stroke:#0000ff;stroke-width:22.5;stroke-linecap:butt;stroke-linejoin:round;stroke-miterlimit:10;stroke-dasharray:none;stroke-opacity:1"
             id="path88"
             inkscape:connector-curvature="0" /><g
             id="g90"
             transform="scale(10)"><text
               transform="matrix(1,0,0,-1,483,99.5047)"
               style="font-variant:normal;font-weight:normal;font-size:7.5px;font-family:DejavuSans;-inkscape-font-specification:DejavuSans;writing-mode:lr-tb;fill:#0000ff;fill-opacity:1;fill-rule:nonzero;stroke:none"
               id="text94"><tspan
                 x="0"
                 y="0"
                 id="tspan92">3</tspan></text>
</g><path
             d="M 5452.5,1247.5 V 1131.95"
             style="fill:none;stroke:#0000ff;stroke-width:22.5;stroke-linecap:butt;stroke-linejoin:round;stroke-miterlimit:10;stroke-dasharray:none;stroke-opacity:1"
             id="path96"
             inkscape:connector-curvature="0" /><g
             id="g98"
             transform="scale(10)"><text
               transform="matrix(1,0,0,-1,543,99.5047)"
               style="font-variant:normal;font-weight:normal;font-size:7.5px;font-family:DejavuSans;-inkscape-font-specification:DejavuSans;writing-mode:lr-tb;fill:#0000ff;fill-opacity:1;fill-rule:nonzero;stroke:none"
               id="text102"><tspan
                 x="0"
                 y="0"
                 id="tspan100">4</tspan></text>
</g><path
             d="m 3052.5,967.5 v 5955"
             style="fill:none;stroke:#0000ff;stroke-width:22.5;stroke-linecap:butt;stroke-linejoin:round;stroke-miterlimit:10;stroke-dasharray:none;stroke-opacity:1"
             id="path104"
             inkscape:connector-curvature="0" /><path
             d="m 3052.5,6967.5 -33.76,-75.01 22.51,10 h 22.5 l 22.51,-10 -33.76,75.01"
             style="fill:#0000ff;fill-opacity:1;fill-rule:nonzero;stroke:none"
             id="path106"
             inkscape:connector-curvature="0" /><path
             d="m 3022.5,967.5 h 60"
             style="fill:none;stroke:#0000ff;stroke-width:22.5;stroke-linecap:butt;stroke-linejoin:round;stroke-miterlimit:10;stroke-dasharray:none;stroke-opacity:1"
             id="path108"
             inkscape:connector-curvature="0" /><g
             id="g110"
             transform="scale(10)"><text
               transform="matrix(1,0,0,-1,288.75,94.6156)"
               style="font-variant:normal;font-weight:normal;font-size:7.5px;font-family:DejavuSans;-inkscape-font-specification:DejavuSans;writing-mode:lr-tb;fill:#0000ff;fill-opacity:1;fill-rule:nonzero;stroke:none"
               id="text114"><tspan
                 x="0 4.5"
                 y="0"
                 sodipodi:role="line"
                 id="tspan112">-1</tspan></text>
</g><path
             d="m 3022.5,1189.72 h 60"
             style="fill:none;stroke:#0000ff;stroke-width:22.5;stroke-linecap:butt;stroke-linejoin:round;stroke-miterlimit:10;stroke-dasharray:none;stroke-opacity:1"
             id="path116"
             inkscape:connector-curvature="0" /><g
             id="g118"
             transform="scale(10)"><text
               transform="matrix(1,0,0,-1,291,116.838)"
               style="font-variant:normal;font-weight:normal;font-size:7.5px;font-family:DejavuSans;-inkscape-font-specification:DejavuSans;writing-mode:lr-tb;fill:#0000ff;fill-opacity:1;fill-rule:nonzero;stroke:none"
               id="text122"><tspan
                 x="0"
                 y="0"
                 id="tspan120">0</tspan></text>
</g><path
             d="m 3022.5,1411.95 h 60"
             style="fill:none;stroke:#0000ff;stroke-width:22.5;stroke-linecap:butt;stroke-linejoin:round;stroke-miterlimit:10;stroke-dasharray:none;stroke-opacity:1"
             id="path124"
             inkscape:connector-curvature="0" /><g
             id="g126"
             transform="scale(10)"><text
               transform="matrix(1,0,0,-1,291,139.06)"
               style="font-variant:normal;font-weight:normal;font-size:7.5px;font-family:DejavuSans;-inkscape-font-specification:DejavuSans;writing-mode:lr-tb;fill:#0000ff;fill-opacity:1;fill-rule:nonzero;stroke:none"
               id="text130"><tspan
                 x="0"
                 y="0"
                 id="tspan128">1</tspan></text>
</g><path
             d="m 3022.5,1634.17 h 60"
             style="fill:none;stroke:#0000ff;stroke-width:22.5;stroke-linecap:butt;stroke-linejoin:round;stroke-miterlimit:10;stroke-dasharray:none;stroke-opacity:1"
             id="path132"
             inkscape:connector-curvature="0" /><g
             id="g134"
             transform="scale(10)"><text
               transform="matrix(1,0,0,-1,291,161.282)"
               style="font-variant:normal;font-weight:normal;font-size:7.5px;font-family:DejavuSans;-inkscape-font-specification:DejavuSans;writing-mode:lr-tb;fill:#0000ff;fill-opacity:1;fill-rule:nonzero;stroke:none"
               id="text138"><tspan
                 x="0"
                 y="0"
                 id="tspan136">2</tspan></text>
</g><path
             d="m 3022.5,1856.39 h 60"
             style="fill:none;stroke:#0000ff;stroke-width:22.5;stroke-linecap:butt;stroke-linejoin:round;stroke-miterlimit:10;stroke-dasharray:none;stroke-opacity:1"
             id="path140"
             inkscape:connector-curvature="0" /><g
             id="g142"
             transform="scale(10)"><text
               transform="matrix(1,0,0,-1,291,183.505)"
               style="font-variant:normal;font-weight:normal;font-size:7.5px;font-family:DejavuSans;-inkscape-font-specification:DejavuSans;writing-mode:lr-tb;fill:#0000ff;fill-opacity:1;fill-rule:nonzero;stroke:none"
               id="text146"><tspan
                 x="0"
                 y="0"
                 id="tspan144">3</tspan></text>
</g><path
             d="m 3022.5,2078.61 h 60"
             style="fill:none;stroke:#0000ff;stroke-width:22.5;stroke-linecap:butt;stroke-linejoin:round;stroke-miterlimit:10;stroke-dasharray:none;stroke-opacity:1"
             id="path148"
             inkscape:connector-curvature="0" /><g
             id="g150"
             transform="scale(10)"><text
               transform="matrix(1,0,0,-1,291,205.727)"
               style="font-variant:normal;font-weight:normal;font-size:7.5px;font-family:DejavuSans;-inkscape-font-specification:DejavuSans;writing-mode:lr-tb;fill:#0000ff;fill-opacity:1;fill-rule:nonzero;stroke:none"
               id="text154"><tspan
                 x="0"
                 y="0"
                 id="tspan152">4</tspan></text>
</g><path
             d="m 3022.5,2300.83 h 60"
             style="fill:none;stroke:#0000ff;stroke-width:22.5;stroke-linecap:butt;stroke-linejoin:round;stroke-miterlimit:10;stroke-dasharray:none;stroke-opacity:1"
             id="path156"
             inkscape:connector-curvature="0" /><g
             id="g158"
             transform="scale(10)"><text
               transform="matrix(1,0,0,-1,291,227.949)"
               style="font-variant:normal;font-weight:normal;font-size:7.5px;font-family:DejavuSans;-inkscape-font-specification:DejavuSans;writing-mode:lr-tb;fill:#0000ff;fill-opacity:1;fill-rule:nonzero;stroke:none"
               id="text162"><tspan
                 x="0"
                 y="0"
                 id="tspan160">5</tspan></text>
</g><path
             d="m 3022.5,2523.05 h 60"
             style="fill:none;stroke:#0000ff;stroke-width:22.5;stroke-linecap:butt;stroke-linejoin:round;stroke-miterlimit:10;stroke-dasharray:none;stroke-opacity:1"
             id="path164"
             inkscape:connector-curvature="0" /><g
             id="g166"
             transform="scale(10)"><text
               transform="matrix(1,0,0,-1,291,250.171)"
               style="font-variant:normal;font-weight:normal;font-size:7.5px;font-family:DejavuSans;-inkscape-font-specification:DejavuSans;writing-mode:lr-tb;fill:#0000ff;fill-opacity:1;fill-rule:nonzero;stroke:none"
               id="text170"><tspan
                 x="0"
                 y="0"
                 id="tspan168">6</tspan></text>
</g><path
             d="m 3022.5,2745.28 h 60"
             style="fill:none;stroke:#0000ff;stroke-width:22.5;stroke-linecap:butt;stroke-linejoin:round;stroke-miterlimit:10;stroke-dasharray:none;stroke-opacity:1"
             id="path172"
             inkscape:connector-curvature="0" /><g
             id="g174"
             transform="scale(10)"><text
               transform="matrix(1,0,0,-1,291,272.393)"
               style="font-variant:normal;font-weight:normal;font-size:7.5px;font-family:DejavuSans;-inkscape-font-specification:DejavuSans;writing-mode:lr-tb;fill:#0000ff;fill-opacity:1;fill-rule:nonzero;stroke:none"
               id="text178"><tspan
                 x="0"
                 y="0"
                 id="tspan176">7</tspan></text>
</g><path
             d="m 3022.5,2967.5 h 60"
             style="fill:none;stroke:#0000ff;stroke-width:22.5;stroke-linecap:butt;stroke-linejoin:round;stroke-miterlimit:10;stroke-dasharray:none;stroke-opacity:1"
             id="path180"
             inkscape:connector-curvature="0" /><g
             id="g182"
             transform="scale(10)"><text
               transform="matrix(1,0,0,-1,291,294.616)"
               style="font-variant:normal;font-weight:normal;font-size:7.5px;font-family:DejavuSans;-inkscape-font-specification:DejavuSans;writing-mode:lr-tb;fill:#0000ff;fill-opacity:1;fill-rule:nonzero;stroke:none"
               id="text186"><tspan
                 x="0"
                 y="0"
                 id="tspan184">8</tspan></text>
</g><path
             d="m 3022.5,3189.72 h 60"
             style="fill:none;stroke:#0000ff;stroke-width:22.5;stroke-linecap:butt;stroke-linejoin:round;stroke-miterlimit:10;stroke-dasharray:none;stroke-opacity:1"
             id="path188"
             inkscape:connector-curvature="0" /><g
             id="g190"
             transform="scale(10)"><text
               transform="matrix(1,0,0,-1,291,316.838)"
               style="font-variant:normal;font-weight:normal;font-size:7.5px;font-family:DejavuSans;-inkscape-font-specification:DejavuSans;writing-mode:lr-tb;fill:#0000ff;fill-opacity:1;fill-rule:nonzero;stroke:none"
               id="text194"><tspan
                 x="0"
                 y="0"
                 id="tspan192">9</tspan></text>
</g><path
             d="m 3022.5,3411.95 h 60"
             style="fill:none;stroke:#0000ff;stroke-width:22.5;stroke-linecap:butt;stroke-linejoin:round;stroke-miterlimit:10;stroke-dasharray:none;stroke-opacity:1"
             id="path196"
             inkscape:connector-curvature="0" /><g
             id="g198"
             transform="scale(10)"><text
               transform="matrix(1,0,0,-1,288.75,339.06)"
               style="font-variant:normal;font-weight:normal;font-size:7.5px;font-family:DejavuSans;-inkscape-font-specification:DejavuSans;writing-mode:lr-tb;fill:#0000ff;fill-opacity:1;fill-rule:nonzero;stroke:none"
               id="text202"><tspan
                 x="0 4.5"
                 y="0"
                 sodipodi:role="line"
                 id="tspan200">10</tspan></text>
</g><path
             d="m 3022.5,3634.17 h 60"
             style="fill:none;stroke:#0000ff;stroke-width:22.5;stroke-linecap:butt;stroke-linejoin:round;stroke-miterlimit:10;stroke-dasharray:none;stroke-opacity:1"
             id="path204"
             inkscape:connector-curvature="0" /><g
             id="g206"
             transform="scale(10)"><text
               transform="matrix(1,0,0,-1,288.75,361.282)"
               style="font-variant:normal;font-weight:normal;font-size:7.5px;font-family:DejavuSans;-inkscape-font-specification:DejavuSans;writing-mode:lr-tb;fill:#0000ff;fill-opacity:1;fill-rule:nonzero;stroke:none"
               id="text210"><tspan
                 x="0 4.5"
                 y="0"
                 sodipodi:role="line"
                 id="tspan208">11</tspan></text>
</g><path
             d="m 3022.5,3856.39 h 60"
             style="fill:none;stroke:#0000ff;stroke-width:22.5;stroke-linecap:butt;stroke-linejoin:round;stroke-miterlimit:10;stroke-dasharray:none;stroke-opacity:1"
             id="path212"
             inkscape:connector-curvature="0" /><g
             id="g214"
             transform="scale(10)"><text
               transform="matrix(1,0,0,-1,288.75,383.505)"
               style="font-variant:normal;font-weight:normal;font-size:7.5px;font-family:DejavuSans;-inkscape-font-specification:DejavuSans;writing-mode:lr-tb;fill:#0000ff;fill-opacity:1;fill-rule:nonzero;stroke:none"
               id="text218"><tspan
                 x="0 4.5"
                 y="0"
                 sodipodi:role="line"
                 id="tspan216">12</tspan></text>
</g><path
             d="m 3022.5,4078.61 h 60"
             style="fill:none;stroke:#0000ff;stroke-width:22.5;stroke-linecap:butt;stroke-linejoin:round;stroke-miterlimit:10;stroke-dasharray:none;stroke-opacity:1"
             id="path220"
             inkscape:connector-curvature="0" /><g
             id="g222"
             transform="scale(10)"><text
               transform="matrix(1,0,0,-1,288.75,405.727)"
               style="font-variant:normal;font-weight:normal;font-size:7.5px;font-family:DejavuSans;-inkscape-font-specification:DejavuSans;writing-mode:lr-tb;fill:#0000ff;fill-opacity:1;fill-rule:nonzero;stroke:none"
               id="text226"><tspan
                 x="0 4.5"
                 y="0"
                 sodipodi:role="line"
                 id="tspan224">13</tspan></text>
</g><path
             d="m 3022.5,4300.83 h 60"
             style="fill:none;stroke:#0000ff;stroke-width:22.5;stroke-linecap:butt;stroke-linejoin:round;stroke-miterlimit:10;stroke-dasharray:none;stroke-opacity:1"
             id="path228"
             inkscape:connector-curvature="0" /><g
             id="g230"
             transform="scale(10)"><text
               transform="matrix(1,0,0,-1,288.75,427.949)"
               style="font-variant:normal;font-weight:normal;font-size:7.5px;font-family:DejavuSans;-inkscape-font-specification:DejavuSans;writing-mode:lr-tb;fill:#0000ff;fill-opacity:1;fill-rule:nonzero;stroke:none"
               id="text234"><tspan
                 x="0 4.5"
                 y="0"
                 sodipodi:role="line"
                 id="tspan232">14</tspan></text>
</g><path
             d="m 3022.5,4523.05 h 60"
             style="fill:none;stroke:#0000ff;stroke-width:22.5;stroke-linecap:butt;stroke-linejoin:round;stroke-miterlimit:10;stroke-dasharray:none;stroke-opacity:1"
             id="path236"
             inkscape:connector-curvature="0" /><g
             id="g238"
             transform="scale(10)"><text
               transform="matrix(1,0,0,-1,288.75,450.171)"
               style="font-variant:normal;font-weight:normal;font-size:7.5px;font-family:DejavuSans;-inkscape-font-specification:DejavuSans;writing-mode:lr-tb;fill:#0000ff;fill-opacity:1;fill-rule:nonzero;stroke:none"
               id="text242"><tspan
                 x="0 4.5"
                 y="0"
                 sodipodi:role="line"
                 id="tspan240">15</tspan></text>
</g><path
             d="m 3022.5,4745.28 h 60"
             style="fill:none;stroke:#0000ff;stroke-width:22.5;stroke-linecap:butt;stroke-linejoin:round;stroke-miterlimit:10;stroke-dasharray:none;stroke-opacity:1"
             id="path244"
             inkscape:connector-curvature="0" /><g
             id="g246"
             transform="scale(10)"><text
               transform="matrix(1,0,0,-1,288.75,472.393)"
               style="font-variant:normal;font-weight:normal;font-size:7.5px;font-family:DejavuSans;-inkscape-font-specification:DejavuSans;writing-mode:lr-tb;fill:#0000ff;fill-opacity:1;fill-rule:nonzero;stroke:none"
               id="text250"><tspan
                 x="0 4.5"
                 y="0"
                 sodipodi:role="line"
                 id="tspan248">16</tspan></text>
</g><path
             d="m 3022.5,4967.5 h 60"
             style="fill:none;stroke:#0000ff;stroke-width:22.5;stroke-linecap:butt;stroke-linejoin:round;stroke-miterlimit:10;stroke-dasharray:none;stroke-opacity:1"
             id="path252"
             inkscape:connector-curvature="0" /><g
             id="g254"
             transform="scale(10)"><text
               transform="matrix(1,0,0,-1,288.75,494.616)"
               style="font-variant:normal;font-weight:normal;font-size:7.5px;font-family:DejavuSans;-inkscape-font-specification:DejavuSans;writing-mode:lr-tb;fill:#0000ff;fill-opacity:1;fill-rule:nonzero;stroke:none"
               id="text258"><tspan
                 x="0 4.5"
                 y="0"
                 sodipodi:role="line"
                 id="tspan256">17</tspan></text>
</g><path
             d="m 3022.5,5189.72 h 60"
             style="fill:none;stroke:#0000ff;stroke-width:22.5;stroke-linecap:butt;stroke-linejoin:round;stroke-miterlimit:10;stroke-dasharray:none;stroke-opacity:1"
             id="path260"
             inkscape:connector-curvature="0" /><g
             id="g262"
             transform="scale(10)"><text
               transform="matrix(1,0,0,-1,288.75,516.838)"
               style="font-variant:normal;font-weight:normal;font-size:7.5px;font-family:DejavuSans;-inkscape-font-specification:DejavuSans;writing-mode:lr-tb;fill:#0000ff;fill-opacity:1;fill-rule:nonzero;stroke:none"
               id="text266"><tspan
                 x="0 4.5"
                 y="0"
                 sodipodi:role="line"
                 id="tspan264">18</tspan></text>
</g><path
             d="m 3022.5,5411.95 h 60"
             style="fill:none;stroke:#0000ff;stroke-width:22.5;stroke-linecap:butt;stroke-linejoin:round;stroke-miterlimit:10;stroke-dasharray:none;stroke-opacity:1"
             id="path268"
             inkscape:connector-curvature="0" /><g
             id="g270"
             transform="scale(10)"><text
               transform="matrix(1,0,0,-1,288.75,539.06)"
               style="font-variant:normal;font-weight:normal;font-size:7.5px;font-family:DejavuSans;-inkscape-font-specification:DejavuSans;writing-mode:lr-tb;fill:#0000ff;fill-opacity:1;fill-rule:nonzero;stroke:none"
               id="text274"><tspan
                 x="0 4.5"
                 y="0"
                 sodipodi:role="line"
                 id="tspan272">19</tspan></text>
</g><path
             d="m 3022.5,5634.17 h 60"
             style="fill:none;stroke:#0000ff;stroke-width:22.5;stroke-linecap:butt;stroke-linejoin:round;stroke-miterlimit:10;stroke-dasharray:none;stroke-opacity:1"
             id="path276"
             inkscape:connector-curvature="0" /><g
             id="g278"
             transform="scale(10)"><text
               transform="matrix(1,0,0,-1,288.75,561.282)"
               style="font-variant:normal;font-weight:normal;font-size:7.5px;font-family:DejavuSans;-inkscape-font-specification:DejavuSans;writing-mode:lr-tb;fill:#0000ff;fill-opacity:1;fill-rule:nonzero;stroke:none"
               id="text282"><tspan
                 x="0 4.5"
                 y="0"
                 sodipodi:role="line"
                 id="tspan280">20</tspan></text>
</g><path
             d="m 3022.5,5856.39 h 60"
             style="fill:none;stroke:#0000ff;stroke-width:22.5;stroke-linecap:butt;stroke-linejoin:round;stroke-miterlimit:10;stroke-dasharray:none;stroke-opacity:1"
             id="path284"
             inkscape:connector-curvature="0" /><g
             id="g286"
             transform="scale(10)"><text
               transform="matrix(1,0,0,-1,288.75,583.505)"
               style="font-variant:normal;font-weight:normal;font-size:7.5px;font-family:DejavuSans;-inkscape-font-specification:DejavuSans;writing-mode:lr-tb;fill:#0000ff;fill-opacity:1;fill-rule:nonzero;stroke:none"
               id="text290"><tspan
                 x="0 4.5"
                 y="0"
                 sodipodi:role="line"
                 id="tspan288">21</tspan></text>
</g><path
             d="m 3022.5,6078.61 h 60"
             style="fill:none;stroke:#0000ff;stroke-width:22.5;stroke-linecap:butt;stroke-linejoin:round;stroke-miterlimit:10;stroke-dasharray:none;stroke-opacity:1"
             id="path292"
             inkscape:connector-curvature="0" /><g
             id="g294"
             transform="scale(10)"><text
               transform="matrix(1,0,0,-1,288.75,605.727)"
               style="font-variant:normal;font-weight:normal;font-size:7.5px;font-family:DejavuSans;-inkscape-font-specification:DejavuSans;writing-mode:lr-tb;fill:#0000ff;fill-opacity:1;fill-rule:nonzero;stroke:none"
               id="text298"><tspan
                 x="0 4.5"
                 y="0"
                 sodipodi:role="line"
                 id="tspan296">22</tspan></text>
</g><path
             d="m 3022.5,6300.83 h 60"
             style="fill:none;stroke:#0000ff;stroke-width:22.5;stroke-linecap:butt;stroke-linejoin:round;stroke-miterlimit:10;stroke-dasharray:none;stroke-opacity:1"
             id="path300"
             inkscape:connector-curvature="0" /><g
             id="g302"
             transform="scale(10)"><text
               transform="matrix(1,0,0,-1,288.75,627.949)"
               style="font-variant:normal;font-weight:normal;font-size:7.5px;font-family:DejavuSans;-inkscape-font-specification:DejavuSans;writing-mode:lr-tb;fill:#0000ff;fill-opacity:1;fill-rule:nonzero;stroke:none"
               id="text306"><tspan
                 x="0 4.5"
                 y="0"
                 sodipodi:role="line"
                 id="tspan304">23</tspan></text>
</g><path
             d="m 3022.5,6523.05 h 60"
             style="fill:none;stroke:#0000ff;stroke-width:22.5;stroke-linecap:butt;stroke-linejoin:round;stroke-miterlimit:10;stroke-dasharray:none;stroke-opacity:1"
             id="path308"
             inkscape:connector-curvature="0" /><g
             id="g310"
             transform="scale(10)"><text
               transform="matrix(1,0,0,-1,288.75,650.171)"
               style="font-variant:normal;font-weight:normal;font-size:7.5px;font-family:DejavuSans;-inkscape-font-specification:DejavuSans;writing-mode:lr-tb;fill:#0000ff;fill-opacity:1;fill-rule:nonzero;stroke:none"
               id="text314"><tspan
                 x="0 4.5"
                 y="0"
                 sodipodi:role="line"
                 id="tspan312">24</tspan></text>
</g><path
             d="m 3022.5,6745.28 h 60"
             style="fill:none;stroke:#0000ff;stroke-width:22.5;stroke-linecap:butt;stroke-linejoin:round;stroke-miterlimit:10;stroke-dasharray:none;stroke-opacity:1"
             id="path316"
             inkscape:connector-curvature="0" /><g
             id="g318"
             transform="scale(10)"><text
               transform="matrix(1,0,0,-1,288.75,672.393)"
               style="font-variant:normal;font-weight:normal;font-size:7.5px;font-family:DejavuSans;-inkscape-font-specification:DejavuSans;writing-mode:lr-tb;fill:#0000ff;fill-opacity:1;fill-rule:nonzero;stroke:none"
               id="text322"><tspan
                 x="0 4.5"
                 y="0"
                 sodipodi:role="line"
                 id="tspan320">25</tspan></text>
</g><path
             d="m 3022.5,6967.5 h 60"
             style="fill:none;stroke:#0000ff;stroke-width:22.5;stroke-linecap:butt;stroke-linejoin:round;stroke-miterlimit:10;stroke-dasharray:none;stroke-opacity:1"
             id="path324"
             inkscape:connector-curvature="0" /><g
             id="g326"
             transform="scale(10)"><text
               transform="matrix(1,0,0,-1,288.75,694.616)"
               style="font-variant:normal;font-weight:normal;font-size:7.5px;font-family:DejavuSans;-inkscape-font-specification:DejavuSans;writing-mode:lr-tb;fill:#0000ff;fill-opacity:1;fill-rule:nonzero;stroke:none"
               id="text330"><tspan
                 x="0 4.5"
                 y="0"
                 sodipodi:role="line"
                 id="tspan328">26</tspan></text>
</g><path
             d="m 52.5,6745.28 60,-220 60,-215.56 60,-211.11 60,-206.66 60,-202.23 60,-197.77 60,-193.34 60,-188.89 60,-184.44 60,-180 60,-175.56 60,-171.11 60,-166.66 60,-162.23 60,-157.77 60,-153.34 60,-148.89 60,-144.44 60,-140 60,-135.56 60,-131.11 60,-126.66 60,-122.23 60,-117.77 60,-113.34 60,-108.89 60,-104.44 60,-100 60,-95.56 60,-91.11 60,-86.66 60,-82.23 60,-77.77 60,-73.34 60,-68.89 60,-64.44 60,-60 60,-55.56 60,-51.11 60,-46.66 60,-42.23 60,-37.77 60,-33.34 60,-28.89 60,-24.44 60,-20 60,-15.56 60,-11.11 60,-6.66 60,-2.23 60,2.23 60,6.66 60,11.11 60,15.56 60,20 60,24.44 60,28.89 60,33.34 60,37.77 60,42.23 60,46.66 60,51.11 60,55.56 60,60 60,64.44 60,68.89 60,73.34 60,77.77 60,82.23 60,86.66 60,91.11 60,95.56 60,100 60,104.44 60,108.89 60,113.34 60,117.77 60,122.23 60,126.66 60,131.11 60,135.56 60,140 60,144.44 60,148.89 60,153.34 60,157.77 60,162.23 60,166.66 60,171.11 60,175.56 60,180 60,184.44 60,188.89 60,193.34 60,197.77 60,202.23 60,206.66 60,211.11 60,215.56 60,220"
             style="fill:none;stroke:#ff0000;stroke-width:37.5;stroke-linecap:butt;stroke-linejoin:round;stroke-miterlimit:10;stroke-dasharray:none;stroke-opacity:1"
             id="path332"
             inkscape:connector-curvature="0" /></g></g></g></g></svg>